…
``` r
#Find all entries of Canada and Algeria.
filter(gapminder, country %in% c("Canada", "Algeria"))
```

    ## # A tibble: 24 x 6
    ##    country continent  year lifeExp      pop gdpPercap
    ##     <fctr>    <fctr> <int>   <dbl>    <int>     <dbl>
    ##  1 Algeria    Africa  1952  43.077  9279525  2449.008
    ##  2 Algeria    Africa  1957  45.685 10270856  3013.976
    ##  3 Algeria    Africa  1962  48.303 11000948  2550.817
    ##  4 Algeria    Africa  1967  51.407 12760499  3246.992
    ##  5 Algeria    Africa  1972  54.518 14760787  4182.664
    ##  6 Algeria    Africa  1977  58.014 17152804  4910.417
    ##  7 Algeria    Africa  1982  61.368 20033753  5745.160
    ##  8 Algeria    Africa  1987  65.799 23254956  5681.359
    ##  9 Algeria    Africa  1992  67.744 26298373  5023.217
    ## 10 Algeria    Africa  1997  69.152 29072015  4797.295
    ## # ... with 14 more rows
…
``` r
#also: filter(gapminder, (country =="Canada")| (country == "Algeria"& year %in% 1960:1969)) 

#Find all entries not including European countries.
filter(gapminder, continent != "Europe")
```

    ## # A tibble: 1,344 x 6
    ##        country continent  year lifeExp      pop gdpPercap
    ##         <fctr>    <fctr> <int>   <dbl>    <int>     <dbl>
    ##  1 Afghanistan      Asia  1952  28.801  8425333  779.4453
    ##  2 Afghanistan      Asia  1957  30.332  9240934  820.8530
    ##  3 Afghanistan      Asia  1962  31.997 10267083  853.1007
    ##  4 Afghanistan      Asia  1967  34.020 11537966  836.1971
    ##  5 Afghanistan      Asia  1972  36.088 13079460  739.9811
    ##  6 Afghanistan      Asia  1977  38.438 14880372  786.1134
    ##  7 Afghanistan      Asia  1982  39.854 12881816  978.0114
    ##  8 Afghanistan      Asia  1987  40.822 13867957  852.3959
    ##  9 Afghanistan      Asia  1992  41.674 16317921  649.3414
    ## 10 Afghanistan      Asia  1997  41.763 22227415  635.3414
    ## # ... with 1,334 more rows

select subsets data by columns/variable names.

``` r
select(gapminder, continent, country) #you can use - to remove columns
```

    ## # A tibble: 1,704 x 2
    ##    continent     country
    ##       <fctr>      <fctr>
    ##  1      Asia Afghanistan
    ##  2      Asia Afghanistan
    ##  3      Asia Afghanistan
    ##  4      Asia Afghanistan
    ##  5      Asia Afghanistan
    ##  6      Asia Afghanistan
    ##  7      Asia Afghanistan
    ##  8      Asia Afghanistan
    ##  9      Asia Afghanistan
    ## 10      Asia Afghanistan
    ## # ... with 1,694 more rows
…
``` r
#Exercise: Take all countries in Europe that have a GPD per capita greater than 10000, and select all variables except gdpPercap. (Hint: use -).
gapminder %>%
  filter(continent == "Europe" & gdpPercap > 10000) %>%
  select (-gdpPercap)
```

    ## # A tibble: 214 x 5
    ##    country continent  year lifeExp     pop
    ##     <fctr>    <fctr> <int>   <dbl>   <int>
    ##  1 Austria    Europe  1962  69.540 7129864
    ##  2 Austria    Europe  1967  70.140 7376998
    ##  3 Austria    Europe  1972  70.630 7544201
    ##  4 Austria    Europe  1977  72.170 7568430
    ##  5 Austria    Europe  1982  73.180 7574613
    ##  6 Austria    Europe  1987  74.940 7578903
    ##  7 Austria    Europe  1992  76.040 7914969
    ##  8 Austria    Europe  1997  77.510 8069876
    ##  9 Austria    Europe  2002  78.980 8148312
    ## 10 Austria    Europe  2007  79.829 8199783
    ## # ... with 204 more rows

arrange sorts a data frame by shuffling the order of the rows appropriately. Use desc to sort by descending order.

``` r
arrange(gapminder, desc(pop), desc(lifeExp))
```

    ## # A tibble: 1,704 x 6
    ##    country continent  year  lifeExp        pop gdpPercap
    ##     <fctr>    <fctr> <int>    <dbl>      <int>     <dbl>
    ##  1   China      Asia  2007 72.96100 1318683096 4959.1149
    ##  2   China      Asia  2002 72.02800 1280400000 3119.2809
    ##  3   China      Asia  1997 70.42600 1230075000 2289.2341
    ##  4   China      Asia  1992 68.69000 1164970000 1655.7842
    ##  5   India      Asia  2007 64.69800 1110396331 2452.2104
    ##  6   China      Asia  1987 67.27400 1084035000 1378.9040
    ##  7   India      Asia  2002 62.87900 1034172547 1746.7695
    ##  8   China      Asia  1982 65.52500 1000281000  962.4214
    ##  9   India      Asia  1997 61.76500  959000000 1458.8174
    ## 10   China      Asia  1977 63.96736  943455000  741.2375
    ## # ... with 1,694 more rows

Exercises:

``` r
#Order the data frame by year, then descending by life expectancy.
arrange(gapminder, year, desc(lifeExp))
```

    ## # A tibble: 1,704 x 6
    ##           country continent  year lifeExp      pop gdpPercap
    ##            <fctr>    <fctr> <int>   <dbl>    <int>     <dbl>
    ##  1         Norway    Europe  1952   72.67  3327728 10095.422
    ##  2        Iceland    Europe  1952   72.49   147962  7267.688
    ##  3    Netherlands    Europe  1952   72.13 10381988  8941.572
    ##  4         Sweden    Europe  1952   71.86  7124673  8527.845
    ##  5        Denmark    Europe  1952   70.78  4334000  9692.385
    ##  6    Switzerland    Europe  1952   69.62  4815000 14734.233
    ##  7    New Zealand   Oceania  1952   69.39  1994794 10556.576
    ##  8 United Kingdom    Europe  1952   69.18 50430000  9979.508
    ##  9      Australia   Oceania  1952   69.12  8691212 10039.596
    ## 10         Canada  Americas  1952   68.75 14785584 11367.161
    ## # ... with 1,694 more rows

``` r
#In addition to the above exercise, rearrange the variables so that year comes first, followed by life expectancy. (Hint: check the documentation for the select function for a related handy function).
gapminder %>%
  arrange(year, desc(lifeExp)) %>% 
  select (year, lifeExp, everything())
```

    ## # A tibble: 1,704 x 6
    ##     year lifeExp        country continent      pop gdpPercap
    ##    <int>   <dbl>         <fctr>    <fctr>    <int>     <dbl>
    ##  1  1952   72.67         Norway    Europe  3327728 10095.422
    ##  2  1952   72.49        Iceland    Europe   147962  7267.688
    ##  3  1952   72.13    Netherlands    Europe 10381988  8941.572
    ##  4  1952   71.86         Sweden    Europe  7124673  8527.845
    ##  5  1952   70.78        Denmark    Europe  4334000  9692.385
    ##  6  1952   69.62    Switzerland    Europe  4815000 14734.233
    ##  7  1952   69.39    New Zealand   Oceania  1994794 10556.576
    ##  8  1952   69.18 United Kingdom    Europe 50430000  9979.508
    ##  9  1952   69.12      Australia   Oceania  8691212 10039.596
    ## 10  1952   68.75         Canada  Americas 14785584 11367.161
    ## # ... with 1,694 more rows

Date: 21st September 2017
-------------------------

mutate creates a new variable by calculating from other variables. - transmute works the same way, but drops all other variables.

``` r
mutate(gapminder, 
       gdp = gdpPercap * pop,
       gdpBill = round(gdp/10000000, 1))
```

    ## # A tibble: 1,704 x 8
    ##        country continent  year lifeExp      pop gdpPercap         gdp
    ##         <fctr>    <fctr> <int>   <dbl>    <int>     <dbl>       <dbl>
    ##  1 Afghanistan      Asia  1952  28.801  8425333  779.4453  6567086330
    ##  2 Afghanistan      Asia  1957  30.332  9240934  820.8530  7585448670
    ##  3 Afghanistan      Asia  1962  31.997 10267083  853.1007  8758855797
    ##  4 Afghanistan      Asia  1967  34.020 11537966  836.1971  9648014150
    ##  5 Afghanistan      Asia  1972  36.088 13079460  739.9811  9678553274
    ##  6 Afghanistan      Asia  1977  38.438 14880372  786.1134 11697659231
    ##  7 Afghanistan      Asia  1982  39.854 12881816  978.0114 12598563401
    ##  8 Afghanistan      Asia  1987  40.822 13867957  852.3959 11820990309
    ##  9 Afghanistan      Asia  1992  41.674 16317921  649.3414 10595901589
    ## 10 Afghanistan      Asia  1997  41.763 22227415  635.3414 14121995875
    ## # ... with 1,694 more rows, and 1 more variables: gdpBill <dbl>

``` r
#Exercise: Make a new column called cc that pastes the country name followed by the continent, separated by a comma. (Hint: use the paste function with the sep=", " argument).

mutate(gapminder, country_cont = paste(country, continent, sep = ", "))
```

    ## # A tibble: 1,704 x 7
    ##        country continent  year lifeExp      pop gdpPercap
    ##         <fctr>    <fctr> <int>   <dbl>    <int>     <dbl>
    ##  1 Afghanistan      Asia  1952  28.801  8425333  779.4453
    ##  2 Afghanistan      Asia  1957  30.332  9240934  820.8530
    ##  3 Afghanistan      Asia  1962  31.997 10267083  853.1007
    ##  4 Afghanistan      Asia  1967  34.020 11537966  836.1971
    ##  5 Afghanistan      Asia  1972  36.088 13079460  739.9811
    ##  6 Afghanistan      Asia  1977  38.438 14880372  786.1134
    ##  7 Afghanistan      Asia  1982  39.854 12881816  978.0114
    ##  8 Afghanistan      Asia  1987  40.822 13867957  852.3959
    ##  9 Afghanistan      Asia  1992  41.674 16317921  649.3414
    ## 10 Afghanistan      Asia  1997  41.763 22227415  635.3414
    ## # ... with 1,694 more rows, and 1 more variables: country_cont <chr>
…
    ## # A tibble: 5 x 3
    ##   continent mean_pop    sd_pop
    ##      <fctr>    <dbl>     <dbl>
    ## 1    Africa  9916003  15490923
    ## 2  Americas 24504795  50979430
    ## 3      Asia 77038722 206885205
    ## 4    Europe 17169765  20519438
    ## 5   Oceania  8874672   6506342

``` r
group_by(gapminder, year<1970)
```

    ## # A tibble: 1,704 x 7
    ## # Groups:   year < 1970 [2]
    ##        country continent  year lifeExp      pop gdpPercap `year < 1970`
    ##         <fctr>    <fctr> <int>   <dbl>    <int>     <dbl>         <lgl>
    ##  1 Afghanistan      Asia  1952  28.801  8425333  779.4453          TRUE
    ##  2 Afghanistan      Asia  1957  30.332  9240934  820.8530          TRUE
    ##  3 Afghanistan      Asia  1962  31.997 10267083  853.1007          TRUE
    ##  4 Afghanistan      Asia  1967  34.020 11537966  836.1971          TRUE
    ##  5 Afghanistan      Asia  1972  36.088 13079460  739.9811         FALSE
    ##  6 Afghanistan      Asia  1977  38.438 14880372  786.1134         FALSE
    ##  7 Afghanistan      Asia  1982  39.854 12881816  978.0114         FALSE
    ##  8 Afghanistan      Asia  1987  40.822 13867957  852.3959         FALSE
    ##  9 Afghanistan      Asia  1992  41.674 16317921  649.3414         FALSE
    ## 10 Afghanistan      Asia  1997  41.763 22227415  635.3414         FALSE
    ## # ... with 1,694 more rows
…
``` r
#Exercise: Find the minimum GDP per capita experienced by each country
(out2 <- gapminder %>% 
    group_by(country) %>% 
    summarize(min.gdp=min(gdpPercap)))
```

    ## # A tibble: 142 x 2
    ##        country    min.gdp
    ##         <fctr>      <dbl>
    ##  1 Afghanistan   635.3414
    ##  2     Albania  1601.0561
    ##  3     Algeria  2449.0082
    ##  4      Angola  2277.1409
    ##  5   Argentina  5911.3151
    ##  6   Australia 10039.5956
    ##  7     Austria  6137.0765
    ##  8     Bahrain  9867.0848
    ##  9  Bangladesh   630.2336
    ## 10     Belgium  8343.1051
    ## # ... with 132 more rows

``` r
#Exercise: How many years of record does each country have?
(out3 <- gapminder %>% 
    group_by(country) %>% 
    summarize(nyear = n_distinct(year)))
```

    ## # A tibble: 142 x 2
    ##        country nyear
    ##         <fctr> <int>
    ##  1 Afghanistan    12
    ##  2     Albania    12
    ##  3     Algeria    12
    ##  4      Angola    12
    ##  5   Argentina    12
    ##  6   Australia    12
    ##  7     Austria    12
    ##  8     Bahrain    12
    ##  9  Bangladesh    12
    ## 10     Belgium    12
    ## # ... with 132 more rows
…
